{
    "prepare_queue": {
        "installed": [],
        "uninstalled": []
    },
    "config_munge": {
        "files": {}
    },
    "installed_plugins": {
        "com.hiraqui.ringtone": {
            "PACKAGE_NAME": "com.elise.fistfulofsound"
        },
        "cordova-plugin-dialogs": {
            "PACKAGE_NAME": "com.elise.fistfulofsound"
        },
        "cordova-plugin-media": {
            "PACKAGE_NAME": "com.elise.fistfulofsound"
        },
        "cordova-plugin-whitelist": {
            "PACKAGE_NAME": "com.elise.fistfulofsound"
        },
        "cordova-plugin-x-toast": {
            "PACKAGE_NAME": "com.elise.fistfulofsound"
        }
    },
    "dependent_plugins": {
        "cordova-plugin-file": {
            "PACKAGE_NAME": "com.elise.fistfulofsound"
        }
    }
}